,PD0 (Exite),PE1 (Drive),PD2 (Sns),PD3 (Snk),,PD0 (Exite),PE1 (Drive),PD2 (SnsSrc),PD3 (Snk),PD2 (SnsSrc),,Vgs,Vds,Rds(ON),Id,P(2N7000)
refV = 3911,,,,,,,,,,,,,,,,
0,18.44,18.44,3878.19,6.94,,,,4.94780791,,,,,,,,
1,49,48.81,3871.44,6.81,,,,4.939178403,,,,,,,,
2,83.38,86.19,3872.56,9.94,,,,4.940610262,,,,,,,,
3,122.31,122.19,3869.62,7.94,,,,4.936851633,,,,,,,,
4,160.5,162.25,3869.94,7.62,,,,4.937260735,,,,,,,,
5,198,200.81,3871.38,7.75,,,,4.939101696,,,,,,,,
6,236.69,238.94,3871,8.62,,,,4.938615887,,,,,,,,
7,278.75,278.94,3871.5,8.44,,,,4.93925511,,,,,,,,
8,317.81,315.75,3870.94,8.56,,,,4.938539181,,,,,,,,
9,357.62,355.44,3872.06,6.81,,,,4.939971039,,,,,,,,
10,396.5,396.5,3872.44,8.56,,,,4.940456849,,,,,,,,
11,436.19,439.12,3870.56,7.62,,,,4.938053371,,,,,,,,
12,475.31,476.5,3871.62,7.44,,,,4.939408523,,,,,,,,
13,512.38,515.44,3872.75,7.75,,,,4.940853167,,,,,,,,
14,550.38,552.19,3874.19,7.69,,,,4.942694128,,,,,,,,
15,589.38,592.06,3873.44,8.06,,,,4.941735294,,,,,,,,
16,627.12,630.56,3874.06,9,,,,4.94252793,,,,,,,,
17,667.25,670.44,3872,6.88,,,,4.939894333,,,,,,,,
18,707.38,709.31,3872.94,7.31,,,,4.941096071,,,,,,,,
19,748.38,749.06,3872.38,9,,,,4.940380142,,,,,,,,
20,787.81,787.25,3873.12,7.88,,,,4.941326192,,,,,,,,
21,826.56,826.12,3871.06,9.75,,,,4.938692594,,,,,,,,
22,864.69,865.12,3871.56,8.75,,,,4.939331817,,,,,,,,
23,900.88,903.31,3873.88,8.5,,,,4.94229781,,,,,,,,
24,938.5,943.06,3874.31,9.12,,,,4.942847542,,,,,,,,
25,975.12,980.44,3871.44,7.5,,,,4.939178403,,,,,,,,
26,1015,1021.19,3873.75,8.31,,,,4.942131612,,,,,,,,
27,1058.06,1061.25,3871.56,8.31,,,,4.939331817,,,,,,,,
28,1098.75,1100.81,3866.5,10.88,,,,4.932862883,,,,,,,,
29,1137.94,1138.94,3871.94,13.12,,,,4.939817626,,,,,,,,
30,1178.19,1177.12,3878.38,22,,,,4.948050814,,,,,,,,
31,1217.75,1217.44,3877.12,40.88,,,,4.946439973,,,,,,,,
32,1256.81,1255.69,3875.88,76.56,,,,4.944854701,,,,,,,,
33,1292.94,1294.06,3874.94,152.19,,,,4.943652962,,,,,,,,
34,1329.25,1333.38,3876.44,303.75,,,,4.94557063,,,,,,,,
35,1366.88,1372.44,3862.75,581.94,,,,4.928068713,,,,,,,,
36,1411.88,1412.75,3836.31,1052.5,,,,4.894266616,,,,,,,,
37,1448.75,1450.81,3798.5,1767.06,,,,4.845928595,,,,,,,,
38,1489.75,1489.81,3743.62,2739.88,,,,4.775767511,,,,,,,,
39,1531.94,1531.88,3709.25,3369.06,,,,4.731827342,,,,,,,,
40,1572.62,1570.88,3712.25,3393.19,,,,4.735662678,,,,,,,,
41,1612.19,1609.12,3712.06,3401.38,,,,4.735419774,,,,,,,,
42,1651.25,1648.38,3710.5,3400.88,,,,4.733425399,,,,,,,,
43,1687.69,1686.25,3710.75,3402.25,,,,4.73374501,,,,,,,,
44,1724.38,1730.19,3712.25,3404.44,,,,4.735662678,,,,,,,,
45,1761.94,1766.19,3713.88,3406.38,,,,4.737746544,,,,,,,,
46,1800.25,1802.25,3711.75,3406.12,,,,4.735023456,,,,,,,,
47,1841.81,1845.62,3712.25,3405.88,,,,4.735662678,,,,,,,,
48,1882.56,1884.62,3715.06,3409,,,,4.73925511,,,,,,,,
49,1923.19,1922.25,3713.62,3408.94,,,,4.737414149,,,,,,,,
50,1964.19,1960.81,3714.38,3408.94,,,,4.738385767,,,,,,,,
51,2004.12,2000.62,3714.44,3407.69,,,,4.738462474,,,,,,,,
52,2043,2038.75,3712.12,3406.75,,,,4.73549648,,,,,,,,
53,2078.44,2078.25,3714.56,3408.12,,,,4.738615887,,,,,,,,
54,2116.06,2122.44,3716.12,3409,,,,4.740610262,,,,,,,,
55,2153.5,2159.81,3716.44,3409.69,,,,4.741019365,,,,,,,,
56,2193.19,2196.69,3716,3408.94,,,,4.740456849,,,,,,,,
57,2231.94,2235.69,3716.5,3409.81,,,,4.741096071,,,,,,,,
58,2274.75,2275.44,3716,3409.62,,,,4.740456849,,,,,,,,
59,2315.06,2313.19,3716.38,3409.31,,,,4.740942658,,,,,,,,
60,2355.69,2353.56,3715.62,3408.5,,,,4.739971039,,,,,,,,
61,2392.44,2392,3719.38,3410.75,,,,4.744777994,,,,,,,,
62,2431,2430.94,3716.94,3408.25,,,,4.741658587,,,,,,,,
63,2466.5,2469.94,3719.31,3410.12,,,,4.744688503,,,,,,,,
64,2505.5,2509.25,3719.94,3408.81,,,,4.745493924,,,,,,,,
65,2545.94,2548.38,3719.44,3409.25,,,,4.744854701,,,,,,,,
66,2583.5,2587.31,3717.88,3408.38,,,,4.742860326,,,,,,,,
67,2625.81,2626.69,3716.19,3407.31,,,,4.740699753,,,,,,,,
68,2664.06,2664.69,3718.44,3410.44,,,,4.743576255,,,,,,,,
69,2705.38,2704,3716.62,3409.25,,,,4.741249485,,,,,,,,
70,2744.81,2743.94,3716.62,3410.06,,,,4.741249485,,,,,,,,
71,2783.56,2783.5,3719.31,3408.62,,,,4.744688503,,,,,,,,
72,2820.38,2819.25,3720.75,3408.5,,,,4.746529464,,,,,,,,
73,2857.38,2859.81,3723.06,3409.25,,,,4.749482673,,,,,,,,
74,2896.88,2899.31,3724.44,3409.81,,,,4.751246928,,,,,,,,
75,2937.19,2938.19,3721.94,3407,,,,4.748050814,,,,,,,,
76,2972.62,2975.81,3723.25,3409.12,,,,4.749725578,,,,,,,,
77,3014.75,3015.81,3721.31,3408.75,,,,4.747245394,,,,,,,,
78,3054.5,3054.69,3720.75,3408.69,,,,4.746529464,,,,,,,,
79,3096.38,3095.06,3721.69,3409.25,,,,4.747731203,,,,,,,,
80,3134.5,3133.5,3720.56,3407.44,,,,4.74628656,,,,,,,,
81,3173.44,3173.5,3721.88,3410.19,,,,4.747974108,,,,,,,,
82,3213.31,3213.25,3722.88,3409.56,,,,4.749252553,,,,,,,,
83,3250.31,3250.44,3722.31,3409.69,,,,4.748523839,,,,,,,,
84,3286.12,3288.31,3723.31,3410.56,,,,4.749802285,,,,,,,,
85,3325.69,3327,3722.62,3409,,,,4.748920157,,,,,,,,
86,3365.12,3368.19,3722.44,3407.06,,,,4.748690037,,,,,,,,
87,3404.56,3403.19,3719.94,3407.12,,,,4.745493924,,,,,,,,
88,3445.38,3443.19,3720.88,3408.44,,,,4.746695662,,,,,,,,
89,3483.56,3481.38,3721.56,3409.81,,,,4.747565005,,,,,,,,
90,3524.62,3524.12,3720.5,3409.88,,,,4.746209853,,,,,,,,
91,3562.38,3567.06,3719.06,3408.25,,,,4.744368892,,,,,,,,
92,3600.75,3602.5,3722.25,3409.19,,,,4.748447132,,,,,,,,
93,3640.44,3641.25,3720.94,3406.62,,,,4.746772369,,,,,,,,
94,3679,3680.62,3725.25,3409.38,,,,4.752282469,,,,,,,,
95,3719.06,3721,3724.88,3407.38,,,,4.751809444,,,,,,,,
96,3755.88,3759.06,3725.62,3409,,,,4.752755493,,,,,,,,
97,3796.75,3798.06,3725.69,3408.94,,,,4.752844985,,,,,,,,
98,3837.06,3838.12,3723.88,3407.44,,,,4.750530998,,,,,,,,
99,3872.75,3874.19,3724.19,3409.19,,,,4.750927317,,,,,,,,
100,3892.94,3888.94,3725.69,3408.81,,,,4.752844985,,,,,,,,
